{
  "components": [
    {
      "name": "image",
      "created_at": "2016-07-30T19:16:10.013Z",
      "id": 40229,
      "schema": "{\"source\":{\"type\":\"image\"}}",
      "image": null,
      "preview_field": null
    },
    {
      "name": "table",
      "created_at": "2016-08-15T13:10:53.095Z",
      "id": 40259,
      "schema": "{\"table\":{\"type\":\"custom\",\"field_type\":\"table\"}}",
      "image": null,
      "preview_field": null
    },
    {
      "name": "markdown",
      "created_at": "2016-09-24T19:51:33.081Z",
      "id": 40508,
      "schema": "{\"title\":{\"type\":\"text\"},\"text\":{\"type\":\"custom\",\"field_type\":\"markdown\"}}",
      "image": null,
      "preview_field": null
    },
    {
      "name": "pricing",
      "created_at": "2016-08-25T20:11:26.597Z",
      "id": 40357,
      "schema": "{}",
      "image": null,
      "preview_field": null
    },
    {
      "name": "button",
      "created_at": "2016-10-12T19:08:03.947Z",
      "id": 40601,
      "schema": "{\"link\":{\"type\":\"text\"},\"text\":{\"type\":\"text\"}}",
      "image": null,
      "preview_field": null
    },
    {
      "name": "teaser",
      "created_at": "2016-07-20T10:55:15.467Z",
      "id": 40160,
      "schema": "{\"logo\":{\"type\":\"image\"},\"title\":{\"type\":\"text\",\"description\":\"\"},\"subtitle\":{\"type\":\"textarea\"}}",
      "image": null,
      "preview_field": null
    },
    {
      "name": "grid",
      "created_at": "2016-07-20T10:55:15.476Z",
      "id": 40161,
      "schema": "{\"body\":{\"type\":\"bloks\"}}",
      "image": null,
      "preview_field": null
    },
    {
      "name": "column",
      "created_at": "2016-07-20T10:55:15.502Z",
      "id": 40164,
      "schema": "{\"width\":{\"type\":\"option\",\"options\":[{\"value\":\"1-2\",\"name\":\"Half\"},{\"value\":\"1-3\",\"name\":\"One-Third\"},{\"value\":\"2-3\",\"name\":\"Two-Thirds\"}]},\"body\":{\"type\":\"bloks\"}}",
      "image": null,
      "preview_field": null
    },
    {
      "name": "section",
      "created_at": "2016-07-20T10:55:15.457Z",
      "id": 40159,
      "schema": "{\"body\":{\"type\":\"bloks\"},\"style\":{\"type\":\"options\",\"options\":[{\"value\":\"section--grey\",\"name\":\"section--grey\"}]}}",
      "image": null,
      "preview_field": null
    },
    {
      "name": "paragraph",
      "created_at": "2016-08-15T13:49:33.895Z",
      "id": 40260,
      "schema": "{\"text\":{\"type\":\"custom\",\"field_type\":\"markdown\"}}",
      "image": null,
      "preview_field": null
    },
    {
      "name": "root",
      "created_at": "2016-07-20T10:55:15.494Z",
      "id": 40163,
      "schema": "{\"body\":{\"type\":\"bloks\"},\"layout\":{\"type\":\"option\",\"options\":[{\"value\":\"docs\",\"name\":\"Documentation\"},{\"value\":\"default\",\"name\":\"Default\"}]},\"title\":{\"type\":\"textarea\"},\"subtitle\":{\"type\":\"text\"}}",
      "image": null,
      "preview_field": null
    },
    {
      "name": "headline",
      "created_at": "2016-07-20T10:55:15.511Z",
      "id": 40165,
      "schema": "{\"style\":{\"type\":\"option\",\"options\":[{\"value\":\"uk-h1\",\"name\":\"H1\"},{\"value\":\"uk-h2\",\"name\":\"H2\"},{\"value\":\"uk-h3\",\"name\":\"H3\"}]},\"text\":{\"type\":\"text\"},\"spacings\":{\"type\":\"options\",\"options\":[{\"value\":\"uk-margin-top\",\"name\":\"Margin Top\"},{\"value\":\"uk-margin-bottom\",\"name\":\"Margin Bottom\"}]}}",
      "image": null,
      "preview_field": null
    },
    {
      "name": "feature",
      "created_at": "2016-08-25T07:14:34.446Z",
      "id": 40349,
      "schema": "{\"title\":{\"type\":\"text\"},\"definition\":{\"type\":\"textarea\"},\"icon\":{\"type\":\"option\",\"options\":[{\"value\":\"spa\",\"name\":\"spa\"},{\"value\":\"important_devices\",\"name\":\"important_devices\"},{\"value\":\"border_all\",\"name\":\"border_all\"},{\"value\":\"vpn_lock\",\"name\":\"vpn_lock\"},{\"value\":\"widgets\",\"name\":\"widgets\"},{\"value\":\"settings_system_daydream\",\"name\":\"settings_system_daydream\"},{\"value\":\"watch_later\",\"name\":\"watch_later\"}]}}",
      "image": null,
      "preview_field": null
    },
    {
      "name": "featurelist",
      "created_at": "2016-08-15T11:43:49.190Z",
      "id": 40258,
      "schema": "{\"body\":{\"type\":\"bloks\"}}",
      "image": null,
      "preview_field": null
    },
    {
      "name": "tabs",
      "created_at": "2016-10-01T12:20:53.306Z",
      "id": 40526,
      "schema": "{\"body\":{\"type\":\"bloks\"}}",
      "image": null,
      "preview_field": null
    },
    {
      "name": "apidoc",
      "created_at": "2016-10-11T12:44:59.890Z",
      "id": 40584,
      "schema": "{\"description\":{\"type\":\"custom\",\"field_type\":\"markdown\"},\"doc_json\":{\"type\":\"text\"}}",
      "image": null,
      "preview_field": null
    },
    {
      "name": "codeblock",
      "created_at": "2016-07-20T10:55:15.485Z",
      "id": 40162,
      "schema": "{\"code\":{\"type\":\"textarea\",\"description\":\"\"},\"title\":{\"type\":\"text\"},\"language\":{\"type\":\"text\",\"description\":\"\"}}",
      "image": null,
      "preview_field": null
    },
    {
      "name": "tab",
      "created_at": "2016-10-01T12:21:30.303Z",
      "id": 40527,
      "schema": "{\"name\":{\"type\":\"text\"},\"body\":{\"type\":\"bloks\"}}",
      "image": null,
      "preview_field": null
    }
  ]
}